{
  "__type__": "cc.AnimationClip",
  "_name": "q1-correct",
  "_objFlags": 0,
  "_native": "",
  "_duration": 0.18333333333333332,
  "sample": 60,
  "speed": 0.2,
  "wrapMode": 2,
  "curveData": {
    "comps": {
      "cc.Sprite": {
        "spriteFrame": [
          {
            "frame": 0,
            "value": {
              "__uuid__": "a560cbc8-7718-4886-9298-8bf5dbb420e7"
            }
          },
          {
            "frame": 0.016666666666666666,
            "value": {
              "__uuid__": "0f854cc2-ca90-41af-914b-188ee09f78a4"
            }
          },
          {
            "frame": 0.03333333333333333,
            "value": {
              "__uuid__": "e350d94a-930b-45d6-b5d4-f60eb58cc833"
            }
          },
          {
            "frame": 0.05,
            "value": {
              "__uuid__": "8f26bc22-fe02-4609-b3fb-3c5640e64d50"
            }
          },
          {
            "frame": 0.06666666666666667,
            "value": {
              "__uuid__": "7b29d18b-92f5-4073-96c4-8ee799b422bb"
            }
          },
          {
            "frame": 0.08333333333333333,
            "value": {
              "__uuid__": "83aab488-6d21-499b-9b4b-a097b72b3fd4"
            }
          },
          {
            "frame": 0.1,
            "value": {
              "__uuid__": "8d3e0e73-c043-4645-b195-85b174f9ca07"
            }
          },
          {
            "frame": 0.11666666666666667,
            "value": {
              "__uuid__": "318e77f7-6557-4ad3-b61d-30eea26b743a"
            }
          },
          {
            "frame": 0.13333333333333333,
            "value": {
              "__uuid__": "593e55a9-f791-41d2-a15f-5e100e3e303e"
            }
          },
          {
            "frame": 0.15,
            "value": {
              "__uuid__": "61ac3cc3-d42d-4a76-a559-e05bd596f441"
            }
          },
          {
            "frame": 0.16666666666666666,
            "value": {
              "__uuid__": "b950d9d7-5fe1-4ab6-b702-cc9b9f585201"
            }
          }
        ]
      }
    }
  },
  "events": []
}